{
   "page":1,
   "totalPages":490,
   "totalResults":9799,
   "feeds":[
      {
         "userID":1,
         "userAvatar":"https://www.gratispng.com/static/img/default.png",
         "message":"Hello y all, how are you going?",
         "typeOfMessage":"NORMAL"
      },
      {
         "userID":2,
         "userAvatar":"https://e7.pngegg.com/pngimages/799/987/png-clipart-computer-icons-avatar-icon-design-avatar-heroes-computer-wallpaper-thumbnail.png",
         "message":"Olá a todos! Bom dia",
         "typeOfMessage":"NORMAL"
      },
      {
         "userID":2,
         "userAvatar":"https://e7.pngegg.com/pngimages/799/987/png-clipart-computer-icons-avatar-icon-design-avatar-heroes-computer-wallpaper-thumbnail.png",
         "message":"Did you see this?",
         "typeOfMessage":"QUOTE",
         "linkedMessage":{
            "userID":1,
            "userAvatar":"https://www.gratispng.com/static/img/default.png",
            "message":"Hello y'all, how are you going?"
         }
      },
      {
         "userID":1,
         "userAvatar":"https://www.gratispng.com/static/img/default.png",
         "message":"The new season is fantastic",
         "typeOfMessage":"NORMAL"
      },
      {
         "userID":1,
         "userAvatar":"https://www.gratispng.com/static/img/default.png",
         "message":"I can't believe this happened!",
         "typeOfMessage":"NORMAL"
      },
      {
         "userID":1,
         "userAvatar":"https://www.gratispng.com/static/img/default.png",
         "message":"OMG",
         "typeOfMessage":"NORMAL"
      },
      {
         "userID":2,
         "userAvatar":"https://e7.pngegg.com/pngimages/799/987/png-clipart-computer-icons-avatar-icon-design-avatar-heroes-computer-wallpaper-thumbnail.png",
         "message":"Whats happen! PLEASE TELL ME",
         "typeOfMessage":"REPLY",
         "linkedMessage":{
            "userID":1,
            "userAvatar":"https://www.gratispng.com/static/img/default.png",
            "message":"I can't believe this happened!"
         }
      },
      {
         "userID":1,
         "userAvatar":"https://www.gratispng.com/static/img/default.png",
         "message":"No! kkkkkkk",
         "typeOfMessage":"REPLY",
         "linkedMessage":{
            "userID":2,
            "userAvatar":"https://e7.pngegg.com/pngimages/799/987/png-clipart-computer-icons-avatar-icon-design-avatar-heroes-computer-wallpaper-thumbnail.png",
            "message":"Whats happen! PLEASE TELL ME"
         }
      },
      {
         "userID":3,
         "userAvatar":"https://img2.gratispng.com/20180402/bje/kisspng-computer-icons-avatar-login-user-avatar-5ac207e69ecd41.2588125315226654466505.jpg",
         "message":"Did you see this? we are all curious",
         "typeOfMessage":"QUOTE",
         "linkedMessage":{
            "userID":1,
            "userAvatar":"https://www.gratispng.com/static/img/default.png",
            "message":"No! kkkkkkk"
         }
      }
   ]
}
